{
  "profiles": {
    "Otus.Teaching.PromocodeFactory.WebHost": {
      "commandName": "Project",
      "launchBrowser": true,
      "launchUrl": "swagger/index.html",
      "environmentVariables": {
        "ASPNETCORE_ENVIRONMENT": "Development"
      },
      "applicationUrl": "https://localhost:5001;http://localhost:5000"
    },
    "WSL": {
      "commandName": "WSL2",
      "launchBrowser": true,
      "launchUrl": "https://localhost:5001/swagger/index.html",
      "environmentVariables": {
        "ASPNETCORE_ENVIRONMENT": "Development",
        "ASPNETCORE_URLS": "https://localhost:5001;http://localhost:5000"
      },
      "distributionName": ""
    }
  }
}